{
  "count": 189,
  "next": "https://ll.thespacedevs.com/2.2.0/launch/upcoming/?hide_recent_previous=false&include_suborbital=true&is_crewed=false&limit=10&offset=10&related=false",
  "previous": null,
  "results": [
    {
      "id": "663f3c14-f2d5-4547-8a4c-dd5ea5bf35bf",
      "url": "https://ll.thespacedevs.com/2.2.0/launch/663f3c14-f2d5-4547-8a4c-dd5ea5bf35bf/",
      "slug": "soyuz-21afregat-m-meridian-m-no20l",
      "name": "Soyuz 2.1a/Fregat-M | Meridian-M No.20L",
      "status": {
        "id": 1,
        "name": "Go for Launch",
        "abbrev": "Go",
        "description": "Current T-0 confirmed by official or reliable sources."
      },
      "last_updated": "2022-03-18T01:15:23Z",
      "net": "2022-03-22T12:00:00Z",
      "window_end": "2022-03-22T14:00:00Z",
      "window_start": "2022-03-22T12:00:00Z",
      "probability": null,
      "holdreason": "",
      "failreason": "",
      "hashtag": null,
      "launch_service_provider": {
        "id": 193,
        "url": "https://ll.thespacedevs.com/2.2.0/agencies/193/",
        "name": "Russian Space Forces",
        "type": "Government"
      },
      "rocket": {
        "id": 7466,
        "configuration": {
          "id": 45,
          "url": "https://ll.thespacedevs.com/2.2.0/config/launcher/45/",
          "name": "Soyuz 2.1a/Fregat-M",
          "family": "Soyuz",
          "full_name": "Soyuz 2.1a Fregat-M",
          "variant": "Fregat-M"
        }
      },
      "mission": {
        "id": 5967,
        "name": "Meridian-M No.20L",
        "description": "Meridian is a series of communications satellite for military and civilian use.",
        "launch_designator": null,
        "type": "Communications",
        "orbit": {
          "id": 0,
          "name": "Elliptical Orbit",
          "abbrev": "Elliptical"
        }
      },
      "pad": {
        "id": 48,
        "url": "https://ll.thespacedevs.com/2.2.0/pad/48/",
        "agency_id": 163,
        "name": "Unknown Pad",
        "info_url": null,
        "wiki_url": "https://en.wikipedia.org/wiki/Plesetsk_Cosmodrome",
        "map_url": "https://www.google.com/maps?q=62.925556,40.577778",
        "latitude": "62.925556",
        "longitude": "40.577778",
        "location": {
          "id": 6,
          "url": "https://ll.thespacedevs.com/2.2.0/location/6/",
          "name": "Plesetsk Cosmodrome, Russian Federation",
          "country_code": "RUS",
          "map_image": "https://spacelaunchnow-prod-east.nyc3.digitaloceanspaces.com/media/launch_images/location_6_20200803142434.jpg",
          "total_launch_count": 1647,
          "total_landing_count": 0
        },
        "map_image": "https://spacelaunchnow-prod-east.nyc3.digitaloceanspaces.com/media/launch_images/pad_48_20200803143459.jpg",
        "total_launch_count": 4
      },
      "webcast_live": false,
      "image": "https://spacelaunchnow-prod-east.nyc3.digitaloceanspaces.com/media/launcher_images/soyuz25202.1a_image_20190726062341.png",
      "infographic": null,
      "program": []
    },
    {
      "id": "86ea974e-6464-4960-85df-11af88852d57",
      "url": "https://ll.thespacedevs.com/2.2.0/launch/86ea974e-6464-4960-85df-11af88852d57/",
      "slug": "zhuque-2-maiden-flight",
      "name": "Zhuque-2 | Maiden Flight",
      "status": {
        "id": 2,
        "name": "To Be Determined",
        "abbrev": "TBD",
        "description": "Current date is a placeholder or rough estimation based on unreliable or interpreted sources."
      },
      "last_updated": "2022-02-05T18:59:04Z",
      "net": "2022-03-31T00:00:00Z",
      "window_end": "2022-03-31T00:00:00Z",
      "window_start": "2022-03-31T00:00:00Z",
      "probability": -1,
      "holdreason": "",
      "failreason": "",
      "hashtag": null,
      "launch_service_provider": {
        "id": 259,
        "url": "https://ll.thespacedevs.com/2.2.0/agencies/259/",
        "name": "LandSpace",
        "type": "Commercial"
      },
      "rocket": {
        "id": 2514,
        "configuration": {
          "id": 199,
          "url": "https://ll.thespacedevs.com/2.2.0/config/launcher/199/",
          "name": "Zhuque-2",
          "family": "Zhuque",
          "full_name": "Zhuque-2",
          "variant": ""
        }
      },
      "mission": {
        "id": 1026,
        "name": "Maiden Flight",
        "description": "First flight of the new methalox rocket developed by Chinese startup LandSpace.",
        "launch_designator": null,
        "type": "Test Flight",
        "orbit": null
      },
      "pad": {
        "id": 71,
        "url": "https://ll.thespacedevs.com/2.2.0/pad/71/",
        "agency_id": null,
        "name": "Unknown Pad",
        "info_url": null,
        "wiki_url": "",
        "map_url": "",
        "latitude": "40.958",
        "longitude": "100.291",
        "location": {
          "id": 17,
          "url": "https://ll.thespacedevs.com/2.2.0/location/17/",
          "name": "Jiuquan, People's Republic of China",
          "country_code": "CHN",
          "map_image": "https://spacelaunchnow-prod-east.nyc3.digitaloceanspaces.com/media/launch_images/location_17_20200803142429.jpg",
          "total_launch_count": 159,
          "total_landing_count": 0
        },
        "map_image": "https://spacelaunchnow-prod-east.nyc3.digitaloceanspaces.com/media/launch_images/pad_71_20200803143610.jpg",
        "total_launch_count": 29
      },
      "webcast_live": false,
      "image": "https://spacelaunchnow-prod-east.nyc3.digitaloceanspaces.com/media/launcher_images/zhuque-2_image_20200905210848.jpg",
      "infographic": null,
      "program": []
    },
    {
      "id": "c2f5d50b-f4e1-4929-9d37-f6d93313bd67",
      "url": "https://ll.thespacedevs.com/2.2.0/launch/c2f5d50b-f4e1-4929-9d37-f6d93313bd67/",
      "slug": "kuaizhou-1a-centispace-1-s3",
      "name": "Kuaizhou 1A | CentiSpace-1 S3 (?)",
      "status": {
        "id": 2,
        "name": "To Be Determined",
        "abbrev": "TBD",
        "description": "Current date is a placeholder or rough estimation based on unreliable or interpreted sources."
      },
      "last_updated": "2022-02-24T01:02:36Z",
      "net": "2022-03-31T00:00:00Z",
      "window_end": "2022-03-31T00:00:00Z",
      "window_start": "2022-03-31T00:00:00Z",
      "probability": null,
      "holdreason": "",
      "failreason": "",
      "hashtag": null,
      "launch_service_provider": {
        "id": 194,
        "url": "https://ll.thespacedevs.com/2.2.0/agencies/194/",
        "name": "ExPace",
        "type": "Commercial"
      },
      "rocket": {
        "id": 2978,
        "configuration": {
          "id": 135,
          "url": "https://ll.thespacedevs.com/2.2.0/config/launcher/135/",
          "name": "Kuaizhou",
          "family": "Kuaizhou",
          "full_name": "Kuaizhou-1A",
          "variant": "1A"
        }
      },
      "mission": {
        "id": 5905,
        "name": "CentiSpace-1 S3 (?)",
        "description": "CentiSpace-1 S3 is a Chinese commercial small satellite by Beijing-based company Future Navigation, which is to test GNSS augumentation techniques, among them a laser inter-satellite communication link.\r\n\r\nIt was built by CAS Microspace based on their WN-100 bus.",
        "launch_designator": null,
        "type": "Communications",
        "orbit": {
          "id": 8,
          "name": "Low Earth Orbit",
          "abbrev": "LEO"
        }
      },
      "pad": {
        "id": 71,
        "url": "https://ll.thespacedevs.com/2.2.0/pad/71/",
        "agency_id": null,
        "name": "Unknown Pad",
        "info_url": null,
        "wiki_url": "",
        "map_url": "",
        "latitude": "40.958",
        "longitude": "100.291",
        "location": {
          "id": 17,
          "url": "https://ll.thespacedevs.com/2.2.0/location/17/",
          "name": "Jiuquan, People's Republic of China",
          "country_code": "CHN",
          "map_image": "https://spacelaunchnow-prod-east.nyc3.digitaloceanspaces.com/media/launch_images/location_17_20200803142429.jpg",
          "total_launch_count": 159,
          "total_landing_count": 0
        },
        "map_image": "https://spacelaunchnow-prod-east.nyc3.digitaloceanspaces.com/media/launch_images/pad_71_20200803143610.jpg",
        "total_launch_count": 29
      },
      "webcast_live": false,
      "image": "https://spacelaunchnow-prod-east.nyc3.digitaloceanspaces.com/media/launcher_images/kuaizhou_image_20191027094423.jpeg",
      "infographic": null,
      "program": []
    },
    {
      "id": "d1976b9e-46e5-41d2-9d0d-aa76f6c19ef8",
      "url": "https://ll.thespacedevs.com/2.2.0/launch/d1976b9e-46e5-41d2-9d0d-aa76f6c19ef8/",
      "slug": "electron-without-mission-a-beat",
      "name": "Electron | Without Mission A Beat",
      "status": {
        "id": 2,
        "name": "To Be Determined",
        "abbrev": "TBD",
        "description": "Current date is a placeholder or rough estimation based on unreliable or interpreted sources."
      },
      "last_updated": "2022-02-10T00:15:07Z",
      "net": "2022-03-31T00:00:00Z",
      "window_end": "2022-03-31T00:00:00Z",
      "window_start": "2022-03-31T00:00:00Z",
      "probability": null,
      "holdreason": "",
      "failreason": "",
      "hashtag": null,
      "launch_service_provider": {
        "id": 147,
        "url": "https://ll.thespacedevs.com/2.2.0/agencies/147/",
        "name": "Rocket Lab Ltd",
        "type": "Commercial"
      },
      "rocket": {
        "id": 7518,
        "configuration": {
          "id": 26,
          "url": "https://ll.thespacedevs.com/2.2.0/config/launcher/26/",
          "name": "Electron",
          "family": "Electron",
          "full_name": "Electron",
          "variant": ""
        }
      },
      "mission": {
        "id": 5934,
        "name": "Without Mission A Beat",
        "description": "Payload consists of two BlackSky Gen-2 high-resolution multi-spectral Earth observation satellites.",
        "launch_designator": null,
        "type": "Earth Science",
        "orbit": {
          "id": 17,
          "name": "Sun-Synchronous Orbit",
          "abbrev": "SSO"
        }
      },
      "pad": {
        "id": 65,
        "url": "https://ll.thespacedevs.com/2.2.0/pad/65/",
        "agency_id": 147,
        "name": "Rocket Lab Launch Complex 1A",
        "info_url": null,
        "wiki_url": "https://en.wikipedia.org/wiki/Rocket_Lab_Launch_Complex_1",
        "map_url": "https://www.google.com/maps/place/-39.262833,177.864469",
        "latitude": "-39.262833",
        "longitude": "177.864469",
        "location": {
          "id": 10,
          "url": "https://ll.thespacedevs.com/2.2.0/location/10/",
          "name": "Onenui Station, Mahia Peninsula, New Zealand",
          "country_code": "NZL",
          "map_image": "https://spacelaunchnow-prod-east.nyc3.digitaloceanspaces.com/media/launch_images/location_10_20200803142509.jpg",
          "total_launch_count": 24,
          "total_landing_count": 3
        },
        "map_image": "https://spacelaunchnow-prod-east.nyc3.digitaloceanspaces.com/media/launch_images/pad_65_20200803143549.jpg",
        "total_launch_count": 23
      },
      "webcast_live": false,
      "image": "https://spacelaunchnow-prod-east.nyc3.digitaloceanspaces.com/media/launcher_images/electron_image_20190705175640.jpeg",
      "infographic": null,
      "program": []
    },
    {
      "id": "335acce9-a35c-436c-9a22-a2505f20957f",
      "url": "https://ll.thespacedevs.com/2.2.0/launch/335acce9-a35c-436c-9a22-a2505f20957f/",
      "slug": "falcon-9-block-5-transporter-4-dedicated-sso-rides",
      "name": "Falcon 9 Block 5 | Transporter 4 (Dedicated SSO Rideshare)",
      "status": {
        "id": 8,
        "name": "To Be Confirmed",
        "abbrev": "TBC",
        "description": "Awaiting official confirmation - current date is known with some certainty."
      },
      "last_updated": "2022-03-19T19:44:59Z",
      "net": "2022-04-01T16:24:00Z",
      "window_end": "2022-04-01T16:24:00Z",
      "window_start": "2022-04-01T16:24:00Z",
      "probability": null,
      "holdreason": "",
      "failreason": "",
      "hashtag": null,
      "launch_service_provider": {
        "id": 121,
        "url": "https://ll.thespacedevs.com/2.2.0/agencies/121/",
        "name": "SpaceX",
        "type": "Commercial"
      },
      "rocket": {
        "id": 7500,
        "configuration": {
          "id": 164,
          "url": "https://ll.thespacedevs.com/2.2.0/config/launcher/164/",
          "name": "Falcon 9",
          "family": "Falcon",
          "full_name": "Falcon 9 Block 5",
          "variant": "Block 5"
        }
      },
      "mission": {
        "id": 5899,
        "name": "Transporter 4 (Dedicated SSO Rideshare)",
        "description": "Transporter 4 mission is a dedicated rideshare flight to a sun-synchronous orbit with dozens of small microsatellites and nanosatellites for commercial and government customers.",
        "launch_designator": null,
        "type": "Dedicated Rideshare",
        "orbit": {
          "id": 17,
          "name": "Sun-Synchronous Orbit",
          "abbrev": "SSO"
        }
      },
      "pad": {
        "id": 80,
        "url": "https://ll.thespacedevs.com/2.2.0/pad/80/",
        "agency_id": 121,
        "name": "Space Launch Complex 40",
        "info_url": null,
        "wiki_url": "https://en.wikipedia.org/wiki/Cape_Canaveral_Air_Force_Station_Space_Launch_Complex_40",
        "map_url": "http://maps.google.com/maps?q=28.56194122,-80.57735736",
        "latitude": "28.56194122",
        "longitude": "-80.57735736",
        "location": {
          "id": 12,
          "url": "https://ll.thespacedevs.com/2.2.0/location/12/",
          "name": "Cape Canaveral, FL, USA",
          "country_code": "USA",
          "map_image": "https://spacelaunchnow-prod-east.nyc3.digitaloceanspaces.com/media/launch_images/location_12_20200803142519.jpg",
          "total_launch_count": 838,
          "total_landing_count": 23
        },
        "map_image": "https://spacelaunchnow-prod-east.nyc3.digitaloceanspaces.com/media/launch_images/pad_80_20200803143323.jpg",
        "total_launch_count": 138
      },
      "webcast_live": false,
      "image": "https://spacelaunchnow-prod-east.nyc3.digitaloceanspaces.com/media/launcher_images/falcon_9_block__image_20210506060831.jpg",
      "infographic": null,
      "program": []
    },
    {
      "id": "42932355-c450-4250-a885-2d2709fd7cfc",
      "url": "https://ll.thespacedevs.com/2.2.0/launch/42932355-c450-4250-a885-2d2709fd7cfc/",
      "slug": "falcon-9-block-5-nrol-85",
      "name": "Falcon 9 Block 5 | NROL-85",
      "status": {
        "id": 2,
        "name": "To Be Determined",
        "abbrev": "TBD",
        "description": "Current date is a placeholder or rough estimation based on unreliable or interpreted sources."
      },
      "last_updated": "2022-03-19T19:47:30Z",
      "net": "2022-04-15T00:00:00Z",
      "window_end": "2022-04-15T00:00:00Z",
      "window_start": "2022-04-15T00:00:00Z",
      "probability": -1,
      "holdreason": "",
      "failreason": "",
      "hashtag": null,
      "launch_service_provider": {
        "id": 121,
        "url": "https://ll.thespacedevs.com/2.2.0/agencies/121/",
        "name": "SpaceX",
        "type": "Commercial"
      },
      "rocket": {
        "id": 2218,
        "configuration": {
          "id": 164,
          "url": "https://ll.thespacedevs.com/2.2.0/config/launcher/164/",
          "name": "Falcon 9",
          "family": "Falcon",
          "full_name": "Falcon 9 Block 5",
          "variant": "Block 5"
        }
      },
      "mission": null,
      "pad": {
        "id": 16,
        "url": "https://ll.thespacedevs.com/2.2.0/pad/16/",
        "agency_id": null,
        "name": "Space Launch Complex 4E",
        "info_url": null,
        "wiki_url": "",
        "map_url": "http://maps.google.com/maps?q=34.632+N,+120.611+W",
        "latitude": "34.632",
        "longitude": "-120.611",
        "location": {
          "id": 11,
          "url": "https://ll.thespacedevs.com/2.2.0/location/11/",
          "name": "Vandenberg SFB, CA, USA",
          "country_code": "USA",
          "map_image": "https://spacelaunchnow-prod-east.nyc3.digitaloceanspaces.com/media/launch_images/location_11_20200803142416.jpg",
          "total_launch_count": 695,
          "total_landing_count": 4
        },
        "map_image": "https://spacelaunchnow-prod-east.nyc3.digitaloceanspaces.com/media/launch_images/pad_16_20200803143532.jpg",
        "total_launch_count": 89
      },
      "webcast_live": false,
      "image": "https://spacelaunchnow-prod-east.nyc3.digitaloceanspaces.com/media/launcher_images/falcon_9_block__image_20210506060831.jpg",
      "infographic": null,
      "program": []
    },
    {
      "id": "0f770177-f502-465b-9ea5-d7a053ec903c",
      "url": "https://ll.thespacedevs.com/2.2.0/launch/0f770177-f502-465b-9ea5-d7a053ec903c/",
      "slug": "angara-12-mka-r",
      "name": "Angara 1.2 | MKA-R",
      "status": {
        "id": 2,
        "name": "To Be Determined",
        "abbrev": "TBD",
        "description": "Current date is a placeholder or rough estimation based on unreliable or interpreted sources."
      },
      "last_updated": "2022-02-17T15:59:26Z",
      "net": "2022-04-19T00:00:00Z",
      "window_end": "2022-04-19T00:00:00Z",
      "window_start": "2022-04-19T00:00:00Z",
      "probability": -1,
      "holdreason": "",
      "failreason": "",
      "hashtag": null,
      "launch_service_provider": {
        "id": 96,
        "url": "https://ll.thespacedevs.com/2.2.0/agencies/96/",
        "name": "Khrunichev State Research and Production Space Center",
        "type": "Government"
      },
      "rocket": {
        "id": 79,
        "configuration": {
          "id": 136,
          "url": "https://ll.thespacedevs.com/2.2.0/config/launcher/136/",
          "name": "Angara 1.2",
          "family": "Angara",
          "full_name": "Angara 1.2",
          "variant": "1.2"
        }
      },
      "mission": {
        "id": 5845,
        "name": "MKA-R",
        "description": "Russian military radar satellite.",
        "launch_designator": null,
        "type": "Government/Top Secret",
        "orbit": {
          "id": 8,
          "name": "Low Earth Orbit",
          "abbrev": "LEO"
        }
      },
      "pad": {
        "id": 42,
        "url": "https://ll.thespacedevs.com/2.2.0/pad/42/",
        "agency_id": 163,
        "name": "35/1",
        "info_url": null,
        "wiki_url": "https://en.wikipedia.org/wiki/Plesetsk_Cosmodrome_Site_35",
        "map_url": "https://www.google.com/maps?q=62.927319,40.574897",
        "latitude": "62.927319",
        "longitude": "40.574897",
        "location": {
          "id": 6,
          "url": "https://ll.thespacedevs.com/2.2.0/location/6/",
          "name": "Plesetsk Cosmodrome, Russian Federation",
          "country_code": "RUS",
          "map_image": "https://spacelaunchnow-prod-east.nyc3.digitaloceanspaces.com/media/launch_images/location_6_20200803142434.jpg",
          "total_launch_count": 1647,
          "total_landing_count": 0
        },
        "map_image": "https://spacelaunchnow-prod-east.nyc3.digitaloceanspaces.com/media/launch_images/pad_42_20200803143543.jpg",
        "total_launch_count": 3
      },
      "webcast_live": false,
      "image": "https://spacelaunchnow-prod-east.nyc3.digitaloceanspaces.com/media/launcher_images/angara25201.2_image_20190224012254.jpeg",
      "infographic": null,
      "program": []
    },
    {
      "id": "00af0700-46de-4438-bbc3-09b6c0721ee9",
      "url": "https://ll.thespacedevs.com/2.2.0/launch/00af0700-46de-4438-bbc3-09b6c0721ee9/",
      "slug": "h-iia-202-igs-radar-7",
      "name": "H-IIA 202 | IGS Radar-7",
      "status": {
        "id": 2,
        "name": "To Be Determined",
        "abbrev": "TBD",
        "description": "Current date is a placeholder or rough estimation based on unreliable or interpreted sources."
      },
      "last_updated": "2021-11-23T16:10:46Z",
      "net": "2022-04-30T00:00:00Z",
      "window_end": "2022-04-30T00:00:00Z",
      "window_start": "2022-04-30T00:00:00Z",
      "probability": null,
      "holdreason": "",
      "failreason": "",
      "hashtag": null,
      "launch_service_provider": {
        "id": 98,
        "url": "https://ll.thespacedevs.com/2.2.0/agencies/98/",
        "name": "Mitsubishi Heavy Industries",
        "type": "Commercial"
      },
      "rocket": {
        "id": 2539,
        "configuration": {
          "id": 32,
          "url": "https://ll.thespacedevs.com/2.2.0/config/launcher/32/",
          "name": "H-IIA 202",
          "family": "H-II",
          "full_name": "H-IIA 202",
          "variant": "202"
        }
      },
      "mission": {
        "id": 5894,
        "name": "IGS Radar-7",
        "description": "The IGS-Radar 7 is a Japanese radar reconnaissance satellite. The satellite is operated by the Cabinet Satellite Information Center. The satellite serves both Japan's national defense and civil natural disaster monitoring.",
        "launch_designator": null,
        "type": "Government/Top Secret",
        "orbit": {
          "id": 17,
          "name": "Sun-Synchronous Orbit",
          "abbrev": "SSO"
        }
      },
      "pad": {
        "id": 41,
        "url": "https://ll.thespacedevs.com/2.2.0/pad/41/",
        "agency_id": 37,
        "name": "Yoshinobu Launch Complex",
        "info_url": null,
        "wiki_url": "https://en.wikipedia.org/wiki/Yoshinobu_Launch_Complex",
        "map_url": "https://www.google.com/maps/place/30°24'08.0\"N+130°58'30.0\"E/",
        "latitude": "30.402222",
        "longitude": "130.975",
        "location": {
          "id": 26,
          "url": "https://ll.thespacedevs.com/2.2.0/location/26/",
          "name": "Tanegashima, Japan",
          "country_code": "JPN",
          "map_image": "https://spacelaunchnow-prod-east.nyc3.digitaloceanspaces.com/media/launch_images/location_26_20200803142507.jpg",
          "total_launch_count": 84,
          "total_landing_count": 0
        },
        "map_image": "https://spacelaunchnow-prod-east.nyc3.digitaloceanspaces.com/media/launch_images/pad_41_20200803143551.jpg",
        "total_launch_count": 39
      },
      "webcast_live": false,
      "image": "https://spacelaunchnow-prod-east.nyc3.digitaloceanspaces.com/media/launcher_images/h-iia2520202_image_20190222031201.jpeg",
      "infographic": null,
      "program": []
    },
    {
      "id": "2ba0b63c-e5f6-4899-b588-387c7c8e71ca",
      "url": "https://ll.thespacedevs.com/2.2.0/launch/2ba0b63c-e5f6-4899-b588-387c7c8e71ca/",
      "slug": "h-iia-202-xrism-slim",
      "name": "H-IIA 202 | XRISM & SLIM",
      "status": {
        "id": 2,
        "name": "To Be Determined",
        "abbrev": "TBD",
        "description": "Current date is a placeholder or rough estimation based on unreliable or interpreted sources."
      },
      "last_updated": "2021-11-23T16:02:52Z",
      "net": "2022-04-30T00:00:00Z",
      "window_end": "2022-04-30T00:00:00Z",
      "window_start": "2022-04-30T00:00:00Z",
      "probability": -1,
      "holdreason": "",
      "failreason": "",
      "hashtag": null,
      "launch_service_provider": {
        "id": 37,
        "url": "https://ll.thespacedevs.com/2.2.0/agencies/37/",
        "name": "Japan Aerospace Exploration Agency",
        "type": "Government"
      },
      "rocket": {
        "id": 175,
        "configuration": {
          "id": 32,
          "url": "https://ll.thespacedevs.com/2.2.0/config/launcher/32/",
          "name": "H-IIA 202",
          "family": "H-II",
          "full_name": "H-IIA 202",
          "variant": "202"
        }
      },
      "mission": {
        "id": 685,
        "name": "XRISM & SLIM",
        "description": "X-Ray Imaging and Spectroscopy Mission (XRISM), formerly the X-Ray Astronomy Recovery Mission (XARM), is a replacement for the Hitomi satellite that malfunctioned few weeks after the launch. \r\n\r\nSmart Lander for Investigating Moon (SLIM) is a lunar probe that will target a landing on a small crater in Mare Nectaris, an area located near the moon's equator on the side facing Earth.",
        "launch_designator": null,
        "type": "Astrophysics",
        "orbit": {
          "id": 11,
          "name": "Lunar Orbit",
          "abbrev": "LO"
        }
      },
      "pad": {
        "id": 41,
        "url": "https://ll.thespacedevs.com/2.2.0/pad/41/",
        "agency_id": 37,
        "name": "Yoshinobu Launch Complex",
        "info_url": null,
        "wiki_url": "https://en.wikipedia.org/wiki/Yoshinobu_Launch_Complex",
        "map_url": "https://www.google.com/maps/place/30°24'08.0\"N+130°58'30.0\"E/",
        "latitude": "30.402222",
        "longitude": "130.975",
        "location": {
          "id": 26,
          "url": "https://ll.thespacedevs.com/2.2.0/location/26/",
          "name": "Tanegashima, Japan",
          "country_code": "JPN",
          "map_image": "https://spacelaunchnow-prod-east.nyc3.digitaloceanspaces.com/media/launch_images/location_26_20200803142507.jpg",
          "total_launch_count": 84,
          "total_landing_count": 0
        },
        "map_image": "https://spacelaunchnow-prod-east.nyc3.digitaloceanspaces.com/media/launch_images/pad_41_20200803143551.jpg",
        "total_launch_count": 39
      },
      "webcast_live": false,
      "image": "https://spacelaunchnow-prod-east.nyc3.digitaloceanspaces.com/media/launcher_images/h-iia2520202_image_20190222031201.jpeg",
      "infographic": null,
      "program": []
    },
    {
      "id": "6e5725b3-d0e9-4484-9d79-514fe8b978be",
      "url": "https://ll.thespacedevs.com/2.2.0/launch/6e5725b3-d0e9-4484-9d79-514fe8b978be/",
      "slug": "soyuz-21afregat-m-meteor-m-no2-3",
      "name": "Soyuz 2.1a/Fregat-M | Meteor-M No.2-3",
      "status": {
        "id": 2,
        "name": "To Be Determined",
        "abbrev": "TBD",
        "description": "Current date is a placeholder or rough estimation based on unreliable or interpreted sources."
      },
      "last_updated": "2021-12-08T04:45:34Z",
      "net": "2022-04-30T00:00:00Z",
      "window_end": "2022-04-30T00:00:00Z",
      "window_start": "2022-04-30T00:00:00Z",
      "probability": -1,
      "holdreason": "",
      "failreason": "",
      "hashtag": null,
      "launch_service_provider": {
        "id": 63,
        "url": "https://ll.thespacedevs.com/2.2.0/agencies/63/",
        "name": "Russian Federal Space Agency (ROSCOSMOS)",
        "type": "Government"
      },
      "rocket": {
        "id": 2510,
        "configuration": {
          "id": 45,
          "url": "https://ll.thespacedevs.com/2.2.0/config/launcher/45/",
          "name": "Soyuz 2.1a/Fregat-M",
          "family": "Soyuz",
          "full_name": "Soyuz 2.1a Fregat-M",
          "variant": "Fregat-M"
        }
      },
      "mission": null,
      "pad": {
        "id": 83,
        "url": "https://ll.thespacedevs.com/2.2.0/pad/83/",
        "agency_id": 63,
        "name": "Cosmodrome Site 1S",
        "info_url": null,
        "wiki_url": "https://en.wikipedia.org/wiki/Vostochny_Cosmodrome",
        "map_url": "https://www.google.ee/maps/place/51°53'03.8\"N+128°20'02.2\"E/",
        "latitude": "51.884395",
        "longitude": "128.333932",
        "location": {
          "id": 18,
          "url": "https://ll.thespacedevs.com/2.2.0/location/18/",
          "name": "Vostochny Cosmodrome, Siberia, Russian Federation",
          "country_code": "RUS",
          "map_image": "https://spacelaunchnow-prod-east.nyc3.digitaloceanspaces.com/media/launch_images/location_18_20200803142401.jpg",
          "total_launch_count": 11,
          "total_landing_count": 0
        },
        "map_image": "https://spacelaunchnow-prod-east.nyc3.digitaloceanspaces.com/media/launch_images/pad_83_20200803143544.jpg",
        "total_launch_count": 11
      },
      "webcast_live": false,
      "image": "https://spacelaunchnow-prod-east.nyc3.digitaloceanspaces.com/media/launcher_images/soyuz25202.1a_image_20190726062341.png",
      "infographic": null,
      "program": []
    }
  ]
}